%YAML 1.1
%TAG !u! tag:unity3d.com,2011:
--- !u!74 &7400000
AnimationClip:
  m_ObjectHideFlags: 0
  m_CorrespondingSourceObject: {fileID: 0}
  m_PrefabInstance: {fileID: 0}
  m_PrefabAsset: {fileID: 0}
  m_Name: Disparar
  serializedVersion: 6
  m_Legacy: 0
  m_Compressed: 0
  m_UseHighQualityCurve: 1
  m_RotationCurves: []
  m_CompressedRotationCurves: []
  m_EulerCurves: []
  m_PositionCurves: []
  m_ScaleCurves: []
  m_FloatCurves: []
  m_PPtrCurves:
  - curve:
    - time: 0
      value: {fileID: 21300000, guid: 85b5b32a1ba02b54e94c91c1e18e9ef6, type: 3}
    - time: 0.083333336
      value: {fileID: 21300000, guid: 08290f94626b66e4c852fc1d03cb66a1, type: 3}
    - time: 0.16666667
      value: {fileID: 21300000, guid: 7b8c3d4814d1a8b459a7987766d41a25, type: 3}
    - time: 0.25
      value: {fileID: 21300000, guid: fa4473aa4bf36d342bc524d90ef89b15, type: 3}
    - time: 0.33333334
      value: {fileID: 21300000, guid: 9c77c97afd0a04a4cb15cf698440ba2c, type: 3}
    - time: 0.41666666
      value: {fileID: 21300000, guid: de6693a4565840b40b3c78e71be0b7bc, type: 3}
    - time: 0.5
      value: {fileID: 21300000, guid: fa47518e5b3ffd040a44562ce47c8d16, type: 3}
    - time: 0.5833333
      value: {fileID: 21300000, guid: 84bb818a72becf141ae461a3f7de0bf9, type: 3}
    - time: 0.6666667
      value: {fileID: 21300000, guid: b6ba1fe43e1d01c498ffbfef4712c46e, type: 3}
    - time: 0.75
      value: {fileID: 21300000, guid: 3647e61d6ea3c0445837ad2700b5c811, type: 3}
    attribute: m_Sprite
    path: 
    classID: 212
    script: {fileID: 0}
  m_SampleRate: 12
  m_WrapMode: 0
  m_Bounds:
    m_Center: {x: 0, y: 0, z: 0}
    m_Extent: {x: 0, y: 0, z: 0}
  m_ClipBindingConstant:
    genericBindings:
    - serializedVersion: 2
      path: 0
      attribute: 0
      script: {fileID: 0}
      typeID: 212
      customType: 23
      isPPtrCurve: 1
    pptrCurveMapping:
    - {fileID: 21300000, guid: 85b5b32a1ba02b54e94c91c1e18e9ef6, type: 3}
    - {fileID: 21300000, guid: 08290f94626b66e4c852fc1d03cb66a1, type: 3}
    - {fileID: 21300000, guid: 7b8c3d4814d1a8b459a7987766d41a25, type: 3}
    - {fileID: 21300000, guid: fa4473aa4bf36d342bc524d90ef89b15, type: 3}
    - {fileID: 21300000, guid: 9c77c97afd0a04a4cb15cf698440ba2c, type: 3}
    - {fileID: 21300000, guid: de6693a4565840b40b3c78e71be0b7bc, type: 3}
    - {fileID: 21300000, guid: fa47518e5b3ffd040a44562ce47c8d16, type: 3}
    - {fileID: 21300000, guid: 84bb818a72becf141ae461a3f7de0bf9, type: 3}
    - {fileID: 21300000, guid: b6ba1fe43e1d01c498ffbfef4712c46e, type: 3}
    - {fileID: 21300000, guid: 3647e61d6ea3c0445837ad2700b5c811, type: 3}
  m_AnimationClipSettings:
    serializedVersion: 2
    m_AdditiveReferencePoseClip: {fileID: 0}
    m_AdditiveReferencePoseTime: 0
    m_StartTime: 0
    m_StopTime: 0.8333333
    m_OrientationOffsetY: 0
    m_Level: 0
    m_CycleOffset: 0
    m_HasAdditiveReferencePose: 0
    m_LoopTime: 1
    m_LoopBlend: 0
    m_LoopBlendOrientation: 0
    m_LoopBlendPositionY: 0
    m_LoopBlendPositionXZ: 0
    m_KeepOriginalOrientation: 0
    m_KeepOriginalPositionY: 1
    m_KeepOriginalPositionXZ: 0
    m_HeightFromFeet: 0
    m_Mirror: 0
  m_EditorCurves: []
  m_EulerEditorCurves: []
  m_HasGenericRootTransform: 0
  m_HasMotionFloatCurves: 0
  m_Events: []
