%YAML 1.1
%TAG !u! tag:unity3d.com,2011:
--- !u!74 &7400000
AnimationClip:
  m_ObjectHideFlags: 0
  m_CorrespondingSourceObject: {fileID: 0}
  m_PrefabInstance: {fileID: 0}
  m_PrefabAsset: {fileID: 0}
  m_Name: Quieto
  serializedVersion: 6
  m_Legacy: 0
  m_Compressed: 0
  m_UseHighQualityCurve: 1
  m_RotationCurves: []
  m_CompressedRotationCurves: []
  m_EulerCurves: []
  m_PositionCurves: []
  m_ScaleCurves: []
  m_FloatCurves: []
  m_PPtrCurves:
  - curve:
    - time: 0
      value: {fileID: 21300000, guid: 6370dbb9e1bcd3d4592fa6273bf83014, type: 3}
    - time: 0.083333336
      value: {fileID: 21300000, guid: 762ea8f326a21874bace28bfdc7f8b0d, type: 3}
    - time: 0.16666667
      value: {fileID: 21300000, guid: 9d61c70fd4ceea143a06ff9b1a76dd38, type: 3}
    - time: 0.25
      value: {fileID: 21300000, guid: 2eb63441fe333c340ac81a781532cdd4, type: 3}
    - time: 0.33333334
      value: {fileID: 21300000, guid: 3e786230d46aab541b3b5afaca72cf76, type: 3}
    - time: 0.41666666
      value: {fileID: 21300000, guid: 2c47067ede3eda14dbc6c013f3673b80, type: 3}
    - time: 0.5
      value: {fileID: 21300000, guid: cd8ce95289a5e0349b01dec23b61233f, type: 3}
    - time: 0.5833333
      value: {fileID: 21300000, guid: c7d29a8109ad96c49803df636c4a792d, type: 3}
    - time: 0.6666667
      value: {fileID: 21300000, guid: 0ad2baa54e307404f8898c06fbaedfeb, type: 3}
    - time: 0.75
      value: {fileID: 21300000, guid: 1e7c2b2cd23e99f45b341e436df76c9c, type: 3}
    attribute: m_Sprite
    path: 
    classID: 212
    script: {fileID: 0}
  m_SampleRate: 12
  m_WrapMode: 0
  m_Bounds:
    m_Center: {x: 0, y: 0, z: 0}
    m_Extent: {x: 0, y: 0, z: 0}
  m_ClipBindingConstant:
    genericBindings:
    - serializedVersion: 2
      path: 0
      attribute: 0
      script: {fileID: 0}
      typeID: 212
      customType: 23
      isPPtrCurve: 1
    pptrCurveMapping:
    - {fileID: 21300000, guid: 6370dbb9e1bcd3d4592fa6273bf83014, type: 3}
    - {fileID: 21300000, guid: 762ea8f326a21874bace28bfdc7f8b0d, type: 3}
    - {fileID: 21300000, guid: 9d61c70fd4ceea143a06ff9b1a76dd38, type: 3}
    - {fileID: 21300000, guid: 2eb63441fe333c340ac81a781532cdd4, type: 3}
    - {fileID: 21300000, guid: 3e786230d46aab541b3b5afaca72cf76, type: 3}
    - {fileID: 21300000, guid: 2c47067ede3eda14dbc6c013f3673b80, type: 3}
    - {fileID: 21300000, guid: cd8ce95289a5e0349b01dec23b61233f, type: 3}
    - {fileID: 21300000, guid: c7d29a8109ad96c49803df636c4a792d, type: 3}
    - {fileID: 21300000, guid: 0ad2baa54e307404f8898c06fbaedfeb, type: 3}
    - {fileID: 21300000, guid: 1e7c2b2cd23e99f45b341e436df76c9c, type: 3}
  m_AnimationClipSettings:
    serializedVersion: 2
    m_AdditiveReferencePoseClip: {fileID: 0}
    m_AdditiveReferencePoseTime: 0
    m_StartTime: 0
    m_StopTime: 0.8333333
    m_OrientationOffsetY: 0
    m_Level: 0
    m_CycleOffset: 0
    m_HasAdditiveReferencePose: 0
    m_LoopTime: 1
    m_LoopBlend: 0
    m_LoopBlendOrientation: 0
    m_LoopBlendPositionY: 0
    m_LoopBlendPositionXZ: 0
    m_KeepOriginalOrientation: 0
    m_KeepOriginalPositionY: 1
    m_KeepOriginalPositionXZ: 0
    m_HeightFromFeet: 0
    m_Mirror: 0
  m_EditorCurves: []
  m_EulerEditorCurves: []
  m_HasGenericRootTransform: 0
  m_HasMotionFloatCurves: 0
  m_Events: []
